-- Merging decision tree log ---
manifest
ADDED from C:\Users\aaron\AndroidStudioProjects\practica_03\app\src\main\AndroidManifest.xml:2:1-29:12
	package
		ADDED from C:\Users\aaron\AndroidStudioProjects\practica_03\app\src\main\AndroidManifest.xml:3:5-43
		INJECTED from C:\Users\aaron\AndroidStudioProjects\practica_03\app\src\main\AndroidManifest.xml
		INJECTED from C:\Users\aaron\AndroidStudioProjects\practica_03\app\src\main\AndroidManifest.xml
	android:versionName
		INJECTED from C:\Users\aaron\AndroidStudioProjects\practica_03\app\src\main\AndroidManifest.xml
		INJECTED from C:\Users\aaron\AndroidStudioProjects\practica_03\app\src\main\AndroidManifest.xml
	xmlns:android
		ADDED from C:\Users\aaron\AndroidStudioProjects\practica_03\app\src\main\AndroidManifest.xml:2:11-69
	android:versionCode
		INJECTED from C:\Users\aaron\AndroidStudioProjects\practica_03\app\src\main\AndroidManifest.xml
		INJECTED from C:\Users\aaron\AndroidStudioProjects\practica_03\app\src\main\AndroidManifest.xml
application
ADDED from C:\Users\aaron\AndroidStudioProjects\practica_03\app\src\main\AndroidManifest.xml:5:5-27:19
MERGED from [com.android.support:appcompat-v7:23.3.0] C:\Users\aaron\AndroidStudioProjects\practica_03\app\build\intermediates\exploded-aar\com.android.support\appcompat-v7\23.3.0\AndroidManifest.xml:25:5-20
MERGED from [com.android.support:support-vector-drawable:23.3.0] C:\Users\aaron\AndroidStudioProjects\practica_03\app\build\intermediates\exploded-aar\com.android.support\support-vector-drawable\23.3.0\AndroidManifest.xml:7:5-20
MERGED from [com.android.support:support-v4:23.3.0] C:\Users\aaron\AndroidStudioProjects\practica_03\app\build\intermediates\exploded-aar\com.android.support\support-v4\23.3.0\AndroidManifest.xml:22:5-20
MERGED from [com.android.support:animated-vector-drawable:23.3.0] C:\Users\aaron\AndroidStudioProjects\practica_03\app\build\intermediates\exploded-aar\com.android.support\animated-vector-drawable\23.3.0\AndroidManifest.xml:7:5-20
MERGED from [com.android.support:support-vector-drawable:23.3.0] C:\Users\aaron\AndroidStudioProjects\practica_03\app\build\intermediates\exploded-aar\com.android.support\support-vector-drawable\23.3.0\AndroidManifest.xml:7:5-20
MERGED from [com.android.support:support-v4:23.3.0] C:\Users\aaron\AndroidStudioProjects\practica_03\app\build\intermediates\exploded-aar\com.android.support\support-v4\23.3.0\AndroidManifest.xml:22:5-20
MERGED from [com.android.support:support-v4:23.3.0] C:\Users\aaron\AndroidStudioProjects\practica_03\app\build\intermediates\exploded-aar\com.android.support\support-v4\23.3.0\AndroidManifest.xml:22:5-20
MERGED from [com.android.support:design:23.3.0] C:\Users\aaron\AndroidStudioProjects\practica_03\app\build\intermediates\exploded-aar\com.android.support\design\23.3.0\AndroidManifest.xml:22:5-20
MERGED from [com.android.support:appcompat-v7:23.3.0] C:\Users\aaron\AndroidStudioProjects\practica_03\app\build\intermediates\exploded-aar\com.android.support\appcompat-v7\23.3.0\AndroidManifest.xml:25:5-20
MERGED from [com.android.support:support-vector-drawable:23.3.0] C:\Users\aaron\AndroidStudioProjects\practica_03\app\build\intermediates\exploded-aar\com.android.support\support-vector-drawable\23.3.0\AndroidManifest.xml:7:5-20
MERGED from [com.android.support:support-v4:23.3.0] C:\Users\aaron\AndroidStudioProjects\practica_03\app\build\intermediates\exploded-aar\com.android.support\support-v4\23.3.0\AndroidManifest.xml:22:5-20
MERGED from [com.android.support:animated-vector-drawable:23.3.0] C:\Users\aaron\AndroidStudioProjects\practica_03\app\build\intermediates\exploded-aar\com.android.support\animated-vector-drawable\23.3.0\AndroidManifest.xml:7:5-20
MERGED from [com.android.support:support-vector-drawable:23.3.0] C:\Users\aaron\AndroidStudioProjects\practica_03\app\build\intermediates\exploded-aar\com.android.support\support-vector-drawable\23.3.0\AndroidManifest.xml:7:5-20
MERGED from [com.android.support:support-v4:23.3.0] C:\Users\aaron\AndroidStudioProjects\practica_03\app\build\intermediates\exploded-aar\com.android.support\support-v4\23.3.0\AndroidManifest.xml:22:5-20
MERGED from [com.android.support:support-v4:23.3.0] C:\Users\aaron\AndroidStudioProjects\practica_03\app\build\intermediates\exploded-aar\com.android.support\support-v4\23.3.0\AndroidManifest.xml:22:5-20
MERGED from [com.android.support:support-v4:23.3.0] C:\Users\aaron\AndroidStudioProjects\practica_03\app\build\intermediates\exploded-aar\com.android.support\support-v4\23.3.0\AndroidManifest.xml:22:5-20
MERGED from [com.android.support:support-v4:23.3.0] C:\Users\aaron\AndroidStudioProjects\practica_03\app\build\intermediates\exploded-aar\com.android.support\support-v4\23.3.0\AndroidManifest.xml:22:5-20
	android:label
		ADDED from C:\Users\aaron\AndroidStudioProjects\practica_03\app\src\main\AndroidManifest.xml:8:9-41
	android:supportsRtl
		ADDED from C:\Users\aaron\AndroidStudioProjects\practica_03\app\src\main\AndroidManifest.xml:9:9-35
	android:allowBackup
		ADDED from C:\Users\aaron\AndroidStudioProjects\practica_03\app\src\main\AndroidManifest.xml:6:9-35
	android:icon
		ADDED from C:\Users\aaron\AndroidStudioProjects\practica_03\app\src\main\AndroidManifest.xml:7:9-43
	android:theme
		ADDED from C:\Users\aaron\AndroidStudioProjects\practica_03\app\src\main\AndroidManifest.xml:10:9-40
activity#course.examples.helloandroid.MainActivity
ADDED from C:\Users\aaron\AndroidStudioProjects\practica_03\app\src\main\AndroidManifest.xml:11:9-17:20
	android:name
		ADDED from C:\Users\aaron\AndroidStudioProjects\practica_03\app\src\main\AndroidManifest.xml:11:19-47
intent-filter#android.intent.action.MAIN+android.intent.category.LAUNCHER
ADDED from C:\Users\aaron\AndroidStudioProjects\practica_03\app\src\main\AndroidManifest.xml:12:13-16:29
action#android.intent.action.MAIN
ADDED from C:\Users\aaron\AndroidStudioProjects\practica_03\app\src\main\AndroidManifest.xml:13:17-69
	android:name
		ADDED from C:\Users\aaron\AndroidStudioProjects\practica_03\app\src\main\AndroidManifest.xml:13:25-66
category#android.intent.category.LAUNCHER
ADDED from C:\Users\aaron\AndroidStudioProjects\practica_03\app\src\main\AndroidManifest.xml:15:17-77
	android:name
		ADDED from C:\Users\aaron\AndroidStudioProjects\practica_03\app\src\main\AndroidManifest.xml:15:27-74
activity#course.examples.helloandroid.DisplayMessageActivity
ADDED from C:\Users\aaron\AndroidStudioProjects\practica_03\app\src\main\AndroidManifest.xml:18:9-26:20
	android:label
		ADDED from C:\Users\aaron\AndroidStudioProjects\practica_03\app\src\main\AndroidManifest.xml:20:13-67
	android:parentActivityName
		ADDED from C:\Users\aaron\AndroidStudioProjects\practica_03\app\src\main\AndroidManifest.xml:21:13-55
	android:theme
		ADDED from C:\Users\aaron\AndroidStudioProjects\practica_03\app\src\main\AndroidManifest.xml:22:13-56
	android:name
		ADDED from C:\Users\aaron\AndroidStudioProjects\practica_03\app\src\main\AndroidManifest.xml:19:13-51
meta-data#android.support.PARENT_ACTIVITY
ADDED from C:\Users\aaron\AndroidStudioProjects\practica_03\app\src\main\AndroidManifest.xml:23:13-25:77
	android:value
		ADDED from C:\Users\aaron\AndroidStudioProjects\practica_03\app\src\main\AndroidManifest.xml:25:17-74
	android:name
		ADDED from C:\Users\aaron\AndroidStudioProjects\practica_03\app\src\main\AndroidManifest.xml:24:17-63
uses-sdk
INJECTED from C:\Users\aaron\AndroidStudioProjects\practica_03\app\src\main\AndroidManifest.xml reason: use-sdk injection requested
MERGED from [com.android.support:appcompat-v7:23.3.0] C:\Users\aaron\AndroidStudioProjects\practica_03\app\build\intermediates\exploded-aar\com.android.support\appcompat-v7\23.3.0\AndroidManifest.xml:21:5-23:78
MERGED from [com.android.support:support-vector-drawable:23.3.0] C:\Users\aaron\AndroidStudioProjects\practica_03\app\build\intermediates\exploded-aar\com.android.support\support-vector-drawable\23.3.0\AndroidManifest.xml:5:5-43
MERGED from [com.android.support:support-v4:23.3.0] C:\Users\aaron\AndroidStudioProjects\practica_03\app\build\intermediates\exploded-aar\com.android.support\support-v4\23.3.0\AndroidManifest.xml:20:5-43
MERGED from [com.android.support:animated-vector-drawable:23.3.0] C:\Users\aaron\AndroidStudioProjects\practica_03\app\build\intermediates\exploded-aar\com.android.support\animated-vector-drawable\23.3.0\AndroidManifest.xml:5:5-44
MERGED from [com.android.support:support-vector-drawable:23.3.0] C:\Users\aaron\AndroidStudioProjects\practica_03\app\build\intermediates\exploded-aar\com.android.support\support-vector-drawable\23.3.0\AndroidManifest.xml:5:5-43
MERGED from [com.android.support:support-v4:23.3.0] C:\Users\aaron\AndroidStudioProjects\practica_03\app\build\intermediates\exploded-aar\com.android.support\support-v4\23.3.0\AndroidManifest.xml:20:5-43
MERGED from [com.android.support:support-v4:23.3.0] C:\Users\aaron\AndroidStudioProjects\practica_03\app\build\intermediates\exploded-aar\com.android.support\support-v4\23.3.0\AndroidManifest.xml:20:5-43
MERGED from [com.android.support:design:23.3.0] C:\Users\aaron\AndroidStudioProjects\practica_03\app\build\intermediates\exploded-aar\com.android.support\design\23.3.0\AndroidManifest.xml:20:5-43
MERGED from [com.android.support:appcompat-v7:23.3.0] C:\Users\aaron\AndroidStudioProjects\practica_03\app\build\intermediates\exploded-aar\com.android.support\appcompat-v7\23.3.0\AndroidManifest.xml:21:5-23:78
MERGED from [com.android.support:support-vector-drawable:23.3.0] C:\Users\aaron\AndroidStudioProjects\practica_03\app\build\intermediates\exploded-aar\com.android.support\support-vector-drawable\23.3.0\AndroidManifest.xml:5:5-43
MERGED from [com.android.support:support-v4:23.3.0] C:\Users\aaron\AndroidStudioProjects\practica_03\app\build\intermediates\exploded-aar\com.android.support\support-v4\23.3.0\AndroidManifest.xml:20:5-43
MERGED from [com.android.support:animated-vector-drawable:23.3.0] C:\Users\aaron\AndroidStudioProjects\practica_03\app\build\intermediates\exploded-aar\com.android.support\animated-vector-drawable\23.3.0\AndroidManifest.xml:5:5-44
MERGED from [com.android.support:support-vector-drawable:23.3.0] C:\Users\aaron\AndroidStudioProjects\practica_03\app\build\intermediates\exploded-aar\com.android.support\support-vector-drawable\23.3.0\AndroidManifest.xml:5:5-43
MERGED from [com.android.support:support-v4:23.3.0] C:\Users\aaron\AndroidStudioProjects\practica_03\app\build\intermediates\exploded-aar\com.android.support\support-v4\23.3.0\AndroidManifest.xml:20:5-43
MERGED from [com.android.support:support-v4:23.3.0] C:\Users\aaron\AndroidStudioProjects\practica_03\app\build\intermediates\exploded-aar\com.android.support\support-v4\23.3.0\AndroidManifest.xml:20:5-43
MERGED from [com.android.support:support-v4:23.3.0] C:\Users\aaron\AndroidStudioProjects\practica_03\app\build\intermediates\exploded-aar\com.android.support\support-v4\23.3.0\AndroidManifest.xml:20:5-43
MERGED from [com.android.support:recyclerview-v7:23.3.0] C:\Users\aaron\AndroidStudioProjects\practica_03\app\build\intermediates\exploded-aar\com.android.support\recyclerview-v7\23.3.0\AndroidManifest.xml:20:5-43
MERGED from [com.android.support:support-v4:23.3.0] C:\Users\aaron\AndroidStudioProjects\practica_03\app\build\intermediates\exploded-aar\com.android.support\support-v4\23.3.0\AndroidManifest.xml:20:5-43
	tools:overrideLibrary
		ADDED from [com.android.support:appcompat-v7:23.3.0] C:\Users\aaron\AndroidStudioProjects\practica_03\app\build\intermediates\exploded-aar\com.android.support\appcompat-v7\23.3.0\AndroidManifest.xml:23:9-75
	android:targetSdkVersion
		INJECTED from C:\Users\aaron\AndroidStudioProjects\practica_03\app\src\main\AndroidManifest.xml
		INJECTED from C:\Users\aaron\AndroidStudioProjects\practica_03\app\src\main\AndroidManifest.xml
	android:minSdkVersion
		INJECTED from C:\Users\aaron\AndroidStudioProjects\practica_03\app\src\main\AndroidManifest.xml
		INJECTED from C:\Users\aaron\AndroidStudioProjects\practica_03\app\src\main\AndroidManifest.xml
